…
casByState <- ungroup(casByState) %>% 
      mutate(population = popList, 
             cas.per.capita100K = n.casualty/population*100000,
             k.per.capita100K = n.killed/population*100000, 
             i.per.capita100K = n.injured/population*100000)
```
Now that we have the per-state data for each year, let's take a look at it:

```
## # A tibble: 200 x 9
##    state  year  n.casualty n.injured n.killed population cas.per.capita10…
##    <chr>  <chr>      <int>     <int>    <int>      <dbl>             <dbl>
##  1 Alaba… 2014         857       553      304   4840037.             17.7 
##  2 Alaba… 2015         899       541      358   4850858.             18.5 
##  3 Alaba… 2016        1162       724      438   4860545.             23.9 
##  4 Alaba… 2017        1322       824      498   4874747.             27.1 
##  5 Alaska 2014          62        46       16    736759.              8.42
##  6 Alaska 2015         129        78       51    737979.             17.5 
##  7 Alaska 2016         145        89       56    741522.             19.6 
##  8 Alaska 2017         108        64       44    739795.             14.6 
##  9 Arizo… 2014         355       182      173   6706435.              5.29
## 10 Arizo… 2015         326       162      164   6802262.              4.79
## # ... with 190 more rows, and 2 more variables: k.per.capita100K <dbl>,
## #   i.per.capita100K <dbl>
```
…
Get the data by city for each year. Note: some years will be missing because those cities did not have any reported gun crimes in those years. Although this will affect the mean values for cities without any reported gun crimes in some years, we are only going to look at the top 50 cities. For these cities to be in the top 50, it stands to reason that there will be crimes from all four years.


```r
casByCity <- gun %>% 
      group_by(city_or_county, state, year = format(date, "%Y")) %>%
      summarize(n.casualty = sum(n_killed + n_injured), 
                n.killed = sum(n_killed), 
                n.injured = sum(n_injured))
casByCity
```

```
## # A tibble: 28,663 x 6
## # Groups:   city_or_county, state [?]
##    city_or_county  state          year  n.casualty n.killed n.injured
##    <chr>           <chr>          <chr>      <int>    <int>     <int>
##  1 Abbeville       Louisiana      2014           4        1         3
##  2 Abbeville       Louisiana      2015           5        0         5
##  3 Abbeville       Louisiana      2016           4        1         3
##  4 Abbeville       Louisiana      2017           3        1         2
##  5 Abbeville       South Carolina 2014           1        0         1
##  6 Abbeville       South Carolina 2016           1        0         1
##  7 Abbeville       South Carolina 2017           3        1         2
##  8 Abbotsford      Wisconsin      2015           0        0         0
##  9 Abbott Township Pennsylvania   2014           1        0         1
## 10 Abbottstown     Pennsylvania   2017           0        0         0
## # ... with 28,653 more rows
```
…
# Remove NA values and then compute the mean on the remaining values; sort by mean
meanCBC <- filter(meanCBC, !is.na(population)) %>%
      group_by(city_or_county, state, abb) %>% 
      summarize(meanCasRate = mean(cas.per.capita100K), 
                meanKRate = mean(k.per.capita100K), 
                meanIRate = mean(i.per.capita100K)) %>% 
      arrange(desc(meanCasRate))

meanCBC
```

```
## # A tibble: 736 x 6
## # Groups:   city_or_county, state [736]
##    city_or_county state       abb   meanCasRate meanKRate meanIRate
##    <chr>          <chr>       <chr>       <dbl>     <dbl>     <dbl>
##  1 Wilmington     Delaware    DE           219.      37.4     182. 
##  2 Trenton        New Jersey  NJ           157.      22.8     134. 
##  3 New Orleans    Louisiana   LA           154.      40.6     113. 
##  4 Gary           Indiana     IN           146.      49.0      97.1
##  5 Baltimore      Maryland    MD           130.      39.5      90.9
##  6 Flint          Michigan    MI           129.      39.3      89.2
##  7 Savannah       Georgia     GA           109.      24.6      84.0
##  8 Chicago        Illinois    IL           108.      18.0      90.5
##  9 Birmingham     Alabama     AL           106.      38.2      68.1
## 10 Jackson        Mississippi MS           104.      31.9      72.3
## # ... with 726 more rows
```
…
