Gun Violence in the US: Exploratory Data Analysis
…
# Add the population and the per capita rate (per 100K people)

# First, generate the population vector:
popList <- numeric()
for (i in 1:nrow(casByState)) {
      popList <- c(popList, as.numeric(pop[pop$state == casByState$state[i], casByState$year[i]]))
}

casByState <- as.data.frame(casByState) %>% mutate(population = popList, cas.per.capita100K = n.casualty/population*100000, k.per.capita100K = n.killed/population*100000, i.per.capita100K = n.injured/population*100000) %>% as_tibble()

Now that we have the per-state data for each year, lets take a look at it:

## # A tibble: 200 x 9
##    state  year  n.casualty n.injured n.killed population cas.per.capita10
##    <chr>  <chr>      <int>     <int>    <int>      <dbl>             <dbl>
##  1 Alaba 2014         914       591      323   4840037.             18.9 
##  2 Alaba 2015         937       562      375   4850858.             19.3 
##  3 Alaba 2016        1234       761      473   4860545.             25.4 
##  4 Alaba 2017        1387       856      531   4874747.             28.5 
##  5 Alaska 2014          70        49       21    736759.              9.50
##  6 Alaska 2015         143        84       59    737979.             19.4 
##  7 Alaska 2016         170       103       67    741522.             22.9 
##  8 Alaska 2017         125        70       55    739795.             16.9 
##  9 Arizo 2014         435       222      213   6706435.              6.49
## 10 Arizo 2015         397       193      204   6802262.              5.84
## # ... with 190 more rows, and 2 more variables: k.per.capita100K <dbl>,
## #   i.per.capita100K <dbl>
…
# Ventura, CA has a nonstandard entry; fix it
cityState$city[grep("\\(", cityState$city)] <- "Ventura"

# Integrate the new columns back to the tibble and rearrange
# Also, since we are missing data for 2017, just reuse the 2016 column
citypop <- mutate(citypop, city = cityState$city, state = cityState$state, "2017" = citypop$`2016`) %>% select(tid2, city, state, "2014", "2015", "2016", "2017")

Get the data by city for each year. Note: some years will be missing because those cities did not have any reported gun crimes in those years. Although this will affect the mean values for cities without any reported gun crimes in some years, we are only going to look at the top 50 cities. For these cities to be in the top 50, it stands to reason that there will be crimes from all four years.

casByCity <- gun %>% group_by(city_or_county, state, year = format(date, "%Y")) %>% summarize(n.casualty = sum(n_killed + n_injured), n.killed = sum(n_killed), n.injured = sum(n_injured))
casByCity

## # A tibble: 30,980 x 6
## # Groups:   city_or_county, state [?]
##    city_or_county state          year  n.casualty n.killed n.injured
##    <chr>          <chr>          <chr>      <int>    <int>     <int>
##  1 Abbeville      Alabama        2016           1        0         1
##  2 Abbeville      Alabama        2017           1        1         0
##  3 Abbeville      Georgia        2017           0        0         0
##  4 Abbeville      Louisiana      2014           5        2         3
##  5 Abbeville      Louisiana      2015           5        0         5
##  6 Abbeville      Louisiana      2016           4        1         3
##  7 Abbeville      Louisiana      2017           4        1         3
##  8 Abbeville      South Carolina 2014           1        0         1
##  9 Abbeville      South Carolina 2016           1        0         1
## 10 Abbeville      South Carolina 2017           4        1         3
## # ... with 30,970 more rows
…
Add the population and abbrevation columns, and calculate the mean values for each each state:

meanCBC <- as.data.frame(casByCity) %>% mutate(abb = abbList, population = popList, cas.per.capita100K = n.casualty/population*100000, k.per.capita100K = n.killed/population*100000, i.per.capita100K = n.injured/population*100000) %>% as_tibble()

# Remove NA values and then compute the mean on the remaining values; sort by mean
meanCBC <- group_by(meanCBC, city_or_county, state, abb) %>% filter(!is.na(population)) %>% summarize(meanCasRate = mean(cas.per.capita100K), meanKRate = mean(k.per.capita100K), meanIRate = mean(i.per.capita100K)) %>% arrange(desc(meanCasRate))

meanCBC

## # A tibble: 700 x 6
## # Groups:   city_or_county, state [700]
##    city_or_county state       abb   meanCasRate meanKRate meanIRate
##    <chr>          <chr>       <chr>       <dbl>     <dbl>     <dbl>
##  1 Trenton        New Jersey  NJ           160.      23.7     137. 
##  2 New Orleans    Louisiana   LA           156.      41.6     114. 
##  3 Gary           Indiana     IN           151.      50.3     100. 
##  4 Baltimore      Maryland    MD           133.      40.4      92.6
##  5 Flint          Michigan    MI           132.      39.8      92.0
##  6 Savannah       Georgia     GA           110.      25.3      84.9
##  7 Chicago        Illinois    IL           110.      18.4      91.6
##  8 Birmingham     Alabama     AL           108.      39.1      69.2
##  9 Jackson        Mississippi MS           107.      32.0      75.4
## 10 Dayton         Ohio        OH           105.      23.1      82.3
## # ... with 690 more rows
…
